{
    "$id": "http://example.com/imoservices-callstationforecastmodel",
    "$schema": "http://json-schema.org/draft-07/schema",
    "default": {},
    "description": "Returns StationForecast model and their properties",
    "properties": {},
    "required": [],
    "title": "WeatherStationForecastModel",
    "type": "object",
    "x-deprecated": null,
    "x-method": "imoservices-callstationforecastmodel",
    "x-service": "imoservices",
    "x-tags": [
        "Imoservices"
    ]
}